Simplevis
…
facet_var

It is always recommended to add a title, x_title and y_title too.

Plots not coloured by a variable.

Identify the function that you need, then provide the data, an x_var and a y_var (unless of the ggplot_sf family).

plot_data <- ggplot2::diamonds %>% 
  slice_sample(prop = 0.05) %>% 
  tibble::as_tibble()

plot_data
#> # A tibble: 2,697 x 10
#>    carat cut       color clarity depth table price     x     y     z
#>    <dbl> <ord>     <ord> <ord>   <dbl> <dbl> <int> <dbl> <dbl> <dbl>
#>  1  0.84 Fair      G     VS1      55.6    64  2724  6.42  6.32  3.54
#>  2  0.3  Premium   I     VVS1     61.2    60   709  4.29  4.27  2.62
#>  3  0.24 Very Good F     VVS1     60.6    60   478  4.03  4.06  2.45
#>  4  1.01 Ideal     E     SI1      62      57  5235  6.38  6.45  3.98
#>  5  0.9  Ideal     H     VS1      60.9    57  4201  6.2   6.24  3.79
#>  6  1.02 Very Good F     IF       62.5    58 10967  6.39  6.54  4.04
#>  7  0.31 Ideal     G     VS2      61.4    57   698  4.37  4.33  2.67
#>  8  1.3  Premium   F     SI2      61.1    58  6261  7.02  6.98  4.28
#>  9  0.55 Ideal     G     VS1      62.2    54  2132  5.27  5.24  3.27
#> 10  0.64 Premium   D     VS2      60.9    59  2243  5.6   5.63  3.42
#> #  with 2,687 more rows
…
plot_data <- storms %>%
  group_by(year) %>%
  summarise(average_wind = mean(wind)) %>% 
  tibble::as_tibble()

plot_data
#> # A tibble: 41 x 2
#>     year average_wind
#>    <dbl>        <dbl>
#>  1  1975         50.9
#>  2  1976         59.9
#>  3  1977         54.0
#>  4  1978         40.5
#>  5  1979         48.7
#>  6  1980         53.7
#>  7  1981         56.6
#>  8  1982         49.5
#>  9  1983         47.0
#> 10  1984         51.4
#> #  with 31 more rows
…
plot_data <- storms %>%
  group_by(year) %>%
  summarise(wind = mean(wind)) %>% 
  tibble::as_tibble()

plot_data 
#> # A tibble: 41 x 2
#>     year  wind
#>    <dbl> <dbl>
#>  1  1975  50.9
#>  2  1976  59.9
#>  3  1977  54.0
#>  4  1978  40.5
#>  5  1979  48.7
#>  6  1980  53.7
#>  7  1981  56.6
#>  8  1982  49.5
#>  9  1983  47.0
#> 10  1984  51.4
#> #  with 31 more rows
…
Note the ggplot_boxplot functions transform the data to boxplot statistics by default.

plot_data <- iris %>%
  mutate(Species = stringr::str_to_sentence(Species)) %>% 
  tibble::as_tibble()

plot_data
#> # A tibble: 150 x 5
#>    Sepal.Length Sepal.Width Petal.Length Petal.Width Species
#>           <dbl>       <dbl>        <dbl>       <dbl> <chr>  
#>  1          5.1         3.5          1.4         0.2 Setosa 
#>  2          4.9         3            1.4         0.2 Setosa 
#>  3          4.7         3.2          1.3         0.2 Setosa 
#>  4          4.6         3.1          1.5         0.2 Setosa 
#>  5          5           3.6          1.4         0.2 Setosa 
#>  6          5.4         3.9          1.7         0.4 Setosa 
#>  7          4.6         3.4          1.4         0.3 Setosa 
#>  8          5           3.4          1.5         0.2 Setosa 
#>  9          4.4         2.9          1.4         0.2 Setosa 
#> 10          4.9         3.1          1.5         0.1 Setosa 
#> #  with 140 more rows
…
Plots coloured by a variable

To colour by a variable, use a _col function (e.g. ggplot_hbar_col). Add a col_var variable in addition.

plot_data <- ggplot2::diamonds %>%
  group_by(cut, clarity) %>%
  summarise(average_price = mean(price)) %>% 
  mutate(average_price = average_price / 1000) %>% 
  mutate(cut = stringr::str_to_sentence(cut)) %>% 
  tibble::as_tibble()

plot_data
#> # A tibble: 40 x 3
#>    cut   clarity average_price
#>    <chr> <ord>           <dbl>
#>  1 Fair  I1               3.70
#>  2 Fair  SI2              5.17
#>  3 Fair  SI1              4.21
#>  4 Fair  VS2              4.17
#>  5 Fair  VS1              4.17
#>  6 Fair  VVS2             3.35
#>  7 Fair  VVS1             3.87
#>  8 Fair  IF               1.91
#>  9 Good  I1               3.60
#> 10 Good  SI2              4.58
#> #  with 30 more rows
…
Plots facetted by a variable

To facet by a variable, use a _facet function.

plot_data <- ggplot2::diamonds %>%
  mutate(cut = stringr::str_to_sentence(cut)) %>%
  group_by(cut, clarity) %>%
  summarise(average_price = mean(price)) %>%
  mutate(average_price = average_price / 1000) %>% 
  tibble::as_tibble()

plot_data
#> # A tibble: 40 x 3
#>    cut   clarity average_price
#>    <chr> <ord>           <dbl>
#>  1 Fair  I1               3.70
#>  2 Fair  SI2              5.17
#>  3 Fair  SI1              4.21
#>  4 Fair  VS2              4.17
#>  5 Fair  VS1              4.17
#>  6 Fair  VVS2             3.35
#>  7 Fair  VVS1             3.87
#>  8 Fair  IF               1.91
#>  9 Good  I1               3.60
#> 10 Good  SI2              4.58
#> #  with 30 more rows
…
